run_40ns.log
VCD info: dumpfile toUpper_gates.vcd opened for output.
INTERVAL_NS = 40 ns
t=160000 ns | IN: 0x41 (A)  || OUT: 0x41 (A)  || EXP: 0x41 (A)
t=320000 ns | IN: 0x42 (B)  || OUT: 0x42 (B)  || EXP: 0x42 (B)
t=480000 ns | IN: 0x43 (C)  || OUT: 0x43 (C)  || EXP: 0x43 (C)
t=640000 ns | IN: 0x44 (D)  || OUT: 0x44 (D)  || EXP: 0x44 (D)
t=800000 ns | IN: 0x45 (E)  || OUT: 0x45 (E)  || EXP: 0x45 (E)
t=960000 ns | IN: 0x46 (F)  || OUT: 0x46 (F)  || EXP: 0x46 (F)
t=1120000 ns | IN: 0x47 (G)  || OUT: 0x47 (G)  || EXP: 0x47 (G)
t=1280000 ns | IN: 0x48 (H)  || OUT: 0x48 (H)  || EXP: 0x48 (H)
t=1440000 ns | IN: 0x49 (I)  || OUT: 0x49 (I)  || EXP: 0x49 (I)
t=1600000 ns | IN: 0x4a (J)  || OUT: 0x4a (J)  || EXP: 0x4a (J)
t=1760000 ns | IN: 0x4b (K)  || OUT: 0x4b (K)  || EXP: 0x4b (K)
t=1920000 ns | IN: 0x4c (L)  || OUT: 0x4c (L)  || EXP: 0x4c (L)
t=2080000 ns | IN: 0x4d (M)  || OUT: 0x4d (M)  || EXP: 0x4d (M)
t=2240000 ns | IN: 0x4e (N)  || OUT: 0x4e (N)  || EXP: 0x4e (N)
t=2400000 ns | IN: 0x4f (O)  || OUT: 0x4f (O)  || EXP: 0x4f (O)
t=2560000 ns | IN: 0x50 (P)  || OUT: 0x50 (P)  || EXP: 0x50 (P)
t=2720000 ns | IN: 0x51 (Q)  || OUT: 0x51 (Q)  || EXP: 0x51 (Q)
t=2880000 ns | IN: 0x52 (R)  || OUT: 0x52 (R)  || EXP: 0x52 (R)
t=3040000 ns | IN: 0x53 (S)  || OUT: 0x53 (S)  || EXP: 0x53 (S)
t=3200000 ns | IN: 0x54 (T)  || OUT: 0x54 (T)  || EXP: 0x54 (T)
t=3360000 ns | IN: 0x55 (U)  || OUT: 0x55 (U)  || EXP: 0x55 (U)
t=3520000 ns | IN: 0x56 (V)  || OUT: 0x56 (V)  || EXP: 0x56 (V)
t=3680000 ns | IN: 0x57 (W)  || OUT: 0x57 (W)  || EXP: 0x57 (W)
t=3840000 ns | IN: 0x58 (X)  || OUT: 0x58 (X)  || EXP: 0x58 (X)
t=4000000 ns | IN: 0x59 (Y)  || OUT: 0x59 (Y)  || EXP: 0x59 (Y)
t=4160000 ns | IN: 0x5a (Z)  || OUT: 0x5a (Z)  || EXP: 0x5a (Z)
t=4320000 ns | IN: 0x61 (a)  || OUT: 0x41 (A)  || EXP: 0x41 (A)
t=4480000 ns | IN: 0x62 (b)  || OUT: 0x42 (B)  || EXP: 0x42 (B)
t=4640000 ns | IN: 0x63 (c)  || OUT: 0x43 (C)  || EXP: 0x43 (C)
t=4800000 ns | IN: 0x64 (d)  || OUT: 0x44 (D)  || EXP: 0x44 (D)
t=4960000 ns | IN: 0x65 (e)  || OUT: 0x45 (E)  || EXP: 0x45 (E)
t=5120000 ns | IN: 0x66 (f)  || OUT: 0x46 (F)  || EXP: 0x46 (F)
t=5280000 ns | IN: 0x67 (g)  || OUT: 0x47 (G)  || EXP: 0x47 (G)
t=5440000 ns | IN: 0x68 (h)  || OUT: 0x48 (H)  || EXP: 0x48 (H)
t=5600000 ns | IN: 0x69 (i)  || OUT: 0x49 (I)  || EXP: 0x49 (I)
t=5760000 ns | IN: 0x6a (j)  || OUT: 0x4a (J)  || EXP: 0x4a (J)
t=5920000 ns | IN: 0x6b (k)  || OUT: 0x4b (K)  || EXP: 0x4b (K)
t=6080000 ns | IN: 0x6c (l)  || OUT: 0x4c (L)  || EXP: 0x4c (L)
t=6240000 ns | IN: 0x6d (m)  || OUT: 0x4d (M)  || EXP: 0x4d (M)
t=6400000 ns | IN: 0x6e (n)  || OUT: 0x4e (N)  || EXP: 0x4e (N)
t=6560000 ns | IN: 0x6f (o)  || OUT: 0x4f (O)  || EXP: 0x4f (O)
t=6720000 ns | IN: 0x70 (p)  || OUT: 0x50 (P)  || EXP: 0x50 (P)
t=6880000 ns | IN: 0x71 (q)  || OUT: 0x51 (Q)  || EXP: 0x51 (Q)
t=7040000 ns | IN: 0x72 (r)  || OUT: 0x52 (R)  || EXP: 0x52 (R)
t=7200000 ns | IN: 0x73 (s)  || OUT: 0x53 (S)  || EXP: 0x53 (S)
t=7360000 ns | IN: 0x74 (t)  || OUT: 0x54 (T)  || EXP: 0x54 (T)
t=7520000 ns | IN: 0x75 (u)  || OUT: 0x55 (U)  || EXP: 0x55 (U)
t=7680000 ns | IN: 0x76 (v)  || OUT: 0x56 (V)  || EXP: 0x56 (V)
t=7840000 ns | IN: 0x77 (w)  || OUT: 0x57 (W)  || EXP: 0x57 (W)
t=8000000 ns | IN: 0x78 (x)  || OUT: 0x58 (X)  || EXP: 0x58 (X)
t=8160000 ns | IN: 0x79 (y)  || OUT: 0x59 (Y)  || EXP: 0x59 (Y)
t=8320000 ns | IN: 0x7a (z)  || OUT: 0x5a (Z)  || EXP: 0x5a (Z)
tb_toUpper_gates.v:85: $finish called at 8520000 (1ps)
